{
    "id": "agent-genesis2",
    "schemaVersion": "1.0",
    "labels": {},
    "content": {
        "modulesContent": {
            "$edgeAgent": {
                "properties.desired": {
                    "modules": {
                        "Genesis": {
                            "version": "1.0",
                            "type": "docker",
                            "status": "running",
                            "restartPolicy": "always",
                            "settings": {
                                "image": "rdautov/genesis:latest",
                                "createOptions": "{\"ExposedPorts\":{\"8880/tcp\":{}},\"HostConfig\":{\"Privileged\":true,\"PortBindings\":{\"8880/tcp\":[{\"HostPort\":\"8880\"}]}}}"
                            }
                        },
                        "GenesisBroker": {
                            "version": "1.0",
                            "type": "docker",
                            "status": "running",
                            "restartPolicy": "always",
                            "settings": {
                                "image": "songhui/divenact-agent:arm32v7",
                                "createOptions": "{\"Cmd\":[\"https://gitlab.com/enact/GeneSIS/raw/master/docs/tutorial/1.nodered_localhost/model.json\"],\"HostConfig\":{\"Privileged\":true,\"NetworkMode\":\"host\"},\"NetworkingConfig\":{\"EndpointsConfig\":{\"host\":{}}}}"
                            }
                        },
                        "SimulatedTemperatureSensor": {
                            "version": "1.0",
                            "type": "docker",
                            "status": "running",
                            "restartPolicy": "always",
                            "settings": {
                                "image": "mcr.microsoft.com/azureiotedge-simulated-temperature-sensor:1.0",
                                "createOptions": {}
                            }
                        }
                    },
                    "runtime": {
                        "settings": {
                            "minDockerVersion": "v1.25"
                        },
                        "type": "docker"
                    },
                    "schemaVersion": "1.0",
                    "systemModules": {
                        "edgeAgent": {
                            "settings": {
                                "image": "mcr.microsoft.com/azureiotedge-agent:1.0",
                                "createOptions": ""
                            },
                            "type": "docker"
                        },
                        "edgeHub": {
                            "settings": {
                                "image": "mcr.microsoft.com/azureiotedge-hub:1.0",
                                "createOptions": "{\"HostConfig\":{\"PortBindings\":{\"443/tcp\":[{\"HostPort\":\"443\"}],\"5671/tcp\":[{\"HostPort\":\"5671\"}],\"8883/tcp\":[{\"HostPort\":\"8883\"}]}}}"
                            },
                            "type": "docker",
                            "status": "running",
                            "restartPolicy": "always"
                        }
                    }
                }
            },
            "$edgeHub": {
                "properties.desired": {
                    "routes": {
                        "route": "FROM /messages/* INTO $upstream"
                    },
                    "schemaVersion": "1.0",
                    "storeAndForwardConfiguration": {
                        "timeToLiveSecs": 7200
                    }
                }
            }
        }
    },
    "targetCondition": "tags.vendor='tellus'",
    "createdTimeUtc": "2020-09-15T13:55:24.947Z",
    "lastUpdatedTimeUtc": "2020-09-15T13:57:55.158Z",
    "priority": 2,
    "systemMetrics": {
        "results": {
            "appliedCount": 1,
            "reportedSuccessfulCount": 1,
            "reportedFailedCount": 0,
            "targetedCount": 1
        },
        "queries": {
            "Targeted": "select deviceId from devices where capabilities.iotEdge = true and tags.vendor='tellus'",
            "Applied": "select deviceId from devices.modules where moduleId = '$edgeAgent' and configurations.[[agent-genesis2]].status = 'Applied'",
            "Reporting Success": "select deviceId from devices.modules where moduleId = '$edgeAgent' and configurations.[[agent-genesis2]].status = 'Applied' and properties.desired.$version = properties.reported.lastDesiredVersion and properties.reported.lastDesiredStatus.code = 200",
            "Reporting Failure": "select deviceId from devices.modules where moduleId = '$edgeAgent' and configurations.[[agent-genesis2]].status = 'Applied' and properties.desired.$version = properties.reported.lastDesiredVersion and properties.reported.lastDesiredStatus.code != 200"
        }
    },
    "metrics": {
        "results": {},
        "queries": {}
    },
    "etag": "NA=="
}